^C:\USERS\MAISO\SOURCE\REPOS\MAPGENERATION\MAPGENERATION\GENERATEURDEDONJON.CPP
/c /ZI /JMC /nologo /W3 /WX- /diagnostics:classic /sdl /Od /Oy- /D _MBCS /Gm- /EHsc /RTC1 /MDd /GS /fp:precise /permissive- /Zc:wchar_t /Zc:forScope /Zc:inline /Fo"DEBUG\\" /Fd"DEBUG\VC141.PDB" /Gd /TP /analyze- /FC C:\USERS\MAISO\SOURCE\REPOS\MAPGENERATION\MAPGENERATION\GENERATEURDEDONJON.CPP
^C:\USERS\MAISO\SOURCE\REPOS\MAPGENERATION\MAPGENERATION\GENERATEURHEATMAP.CPP
/c /ZI /JMC /nologo /W3 /WX- /diagnostics:classic /sdl /Od /Oy- /D _MBCS /Gm- /EHsc /RTC1 /MDd /GS /fp:precise /permissive- /Zc:wchar_t /Zc:forScope /Zc:inline /Fo"DEBUG\\" /Fd"DEBUG\VC141.PDB" /Gd /TP /analyze- /FC C:\USERS\MAISO\SOURCE\REPOS\MAPGENERATION\MAPGENERATION\GENERATEURHEATMAP.CPP
^C:\USERS\MAISO\SOURCE\REPOS\MAPGENERATION\MAPGENERATION\POINT.CPP
/c /ZI /JMC /nologo /W3 /WX- /diagnostics:classic /sdl /Od /Oy- /D _MBCS /Gm- /EHsc /RTC1 /MDd /GS /fp:precise /permissive- /Zc:wchar_t /Zc:forScope /Zc:inline /Fo"DEBUG\\" /Fd"DEBUG\VC141.PDB" /Gd /TP /analyze- /FC C:\USERS\MAISO\SOURCE\REPOS\MAPGENERATION\MAPGENERATION\POINT.CPP
^C:\USERS\MAISO\SOURCE\REPOS\MAPGENERATION\MAPGENERATION\MATRIXOPERATION.CPP
/c /ZI /JMC /nologo /W3 /WX- /diagnostics:classic /sdl /Od /Oy- /D _MBCS /Gm- /EHsc /RTC1 /MDd /GS /fp:precise /permissive- /Zc:wchar_t /Zc:forScope /Zc:inline /Fo"DEBUG\\" /Fd"DEBUG\VC141.PDB" /Gd /TP /analyze- /FC C:\USERS\MAISO\SOURCE\REPOS\MAPGENERATION\MAPGENERATION\MATRIXOPERATION.CPP
^C:\USERS\MAISO\SOURCE\REPOS\MAPGENERATION\MAPGENERATION\MAZE.CPP
/c /ZI /JMC /nologo /W3 /WX- /diagnostics:classic /sdl /Od /Oy- /D _MBCS /Gm- /EHsc /RTC1 /MDd /GS /fp:precise /permissive- /Zc:wchar_t /Zc:forScope /Zc:inline /Fo"DEBUG\\" /Fd"DEBUG\VC141.PDB" /Gd /TP /analyze- /FC C:\USERS\MAISO\SOURCE\REPOS\MAPGENERATION\MAPGENERATION\MAZE.CPP
^C:\USERS\MAISO\SOURCE\REPOS\MAPGENERATION\MAPGENERATION\MAIN.CPP
/c /ZI /JMC /nologo /W3 /WX- /diagnostics:classic /sdl /Od /Oy- /D _MBCS /Gm- /EHsc /RTC1 /MDd /GS /fp:precise /permissive- /Zc:wchar_t /Zc:forScope /Zc:inline /Fo"DEBUG\\" /Fd"DEBUG\VC141.PDB" /Gd /TP /analyze- /FC C:\USERS\MAISO\SOURCE\REPOS\MAPGENERATION\MAPGENERATION\MAIN.CPP
^C:\USERS\MAISO\SOURCE\REPOS\MAPGENERATION\MAPGENERATION\PATERNBANK.CPP
/c /ZI /JMC /nologo /W3 /WX- /diagnostics:classic /sdl /Od /Oy- /D _MBCS /Gm- /EHsc /RTC1 /MDd /GS /fp:precise /permissive- /Zc:wchar_t /Zc:forScope /Zc:inline /Fo"DEBUG\\" /Fd"DEBUG\VC141.PDB" /Gd /TP /analyze- /FC C:\USERS\MAISO\SOURCE\REPOS\MAPGENERATION\MAPGENERATION\PATERNBANK.CPP
^C:\USERS\MAISO\SOURCE\REPOS\MAPGENERATION\MAPGENERATION\GENERATEURIMAGECARTE.CPP
/c /ZI /JMC /nologo /W3 /WX- /diagnostics:classic /sdl /Od /Oy- /D _MBCS /Gm- /EHsc /RTC1 /MDd /GS /fp:precise /permissive- /Zc:wchar_t /Zc:forScope /Zc:inline /Fo"DEBUG\\" /Fd"DEBUG\VC141.PDB" /Gd /TP /analyze- /FC C:\USERS\MAISO\SOURCE\REPOS\MAPGENERATION\MAPGENERATION\GENERATEURIMAGECARTE.CPP
